10 10
0,0,0,0,0,0,0,1,0,0
0,0,1,0,0,0,0,0,0,0
0,0,0,0,0,1,0,0,0,1
0,1,0,0,0,0,1,0,0,0
1,0,4,0,5,0,0,0,6,6
0,0,1,1,0,0,0,0,0,1
1,0,0,0,0,0,0,0,0,0
0,0,0,0,1,0,0,0,0,0
0,1,0,0,0,0,0,1,3,1
0,0,0,1,2,0,0,0,1,0
