10 10
0,0,0,0,0,0,1,3,0,0
0,0,1,1,0,1,0,0,0,0
1,0,0,0,0,0,7,6,6,0
0,1,0,0,0,0,0,0,0,0
0,0,0,0,0,0,6,6,0,1
0,0,1,2,0,0,0,1,0,0
1,0,0,0,0,0,0,0,0,0
0,1,0,7,0,7,7,0,0,1
0,0,1,0,0,0,0,0,1,0
0,0,0,1,0,1,1,0,0,0
